{
	"textures": [
		{
			"image": "swamp.png",
			"format": "RGBA8888",
			"size": {
				"w": 349,
				"h": 177
			},
			"scale": 1,
			"frames": [
				{
					"filename": "swamp house2",
					"rotated": false,
					"trimmed": true,
					"sourceSize": {
						"w": 200,
						"h": 200
					},
					"spriteSourceSize": {
						"x": 6,
						"y": 11,
						"w": 181,
						"h": 175
					},
					"frame": {
						"x": 1,
						"y": 1,
						"w": 181,
						"h": 175
					}
				},
				{
					"filename": "swamp house",
					"rotated": false,
					"trimmed": true,
					"sourceSize": {
						"w": 183,
						"h": 179
					},
					"spriteSourceSize": {
						"x": 5,
						"y": 7,
						"w": 164,
						"h": 160
					},
					"frame": {
						"x": 184,
						"y": 1,
						"w": 164,
						"h": 160
					}
				}
			]
		}
	],
	"meta": {
		"app": "https://www.codeandweb.com/texturepacker",
		"version": "3.0",
		"smartupdate": "$TexturePacker:SmartUpdate:575d7b18629c136a96c3d0f931f4f80e:b78f341203577f47570c1d47d3b1d6e6:5ec26a4328f959597726dab8821193dd$"
	}
}
